…
# Question 6

``` r
med_trans %>%
  unnest_tokens(token, transcription, token = "words") %>%
  anti_join(stop_words, by = c("token" = "word")) %>%
  anti_join(num, by = c("token" = "number")) %>%
  group_by(medical_specialty) %>%
  count(token, sort = TRUE) %>%
  top_n(1,n) 
```

    ## # A tibble: 42 × 3
    ## # Groups:   medical_specialty [40]
    ##    medical_specialty             token       n
    ##    <chr>                         <chr>   <int>
    ##  1 " Surgery"                    patient  4855
    ##  2 " Consult - History and Phy." patient  3046
    ##  3 " Orthopedic"                 patient  1711
    ##  4 " Cardiovascular / Pulmonary" left     1550
    ##  5 " General Medicine"           patient  1356
    ##  6 " Gastroenterology"           patient   872
    ##  7 " Urology"                    patient   776
    ##  8 " Radiology"                  left      701
    ##  9 " Emergency Room Reports"     patient   685
    ## 10 " Discharge Summary"          patient   672
    ## # … with 32 more rows

``` r
med_trans %>%
  unnest_tokens(token, transcription, token = "words") %>%
  anti_join(stop_words, by = c("token" = "word")) %>%
  anti_join(num, by = c("token" = "number")) %>%
  group_by(medical_specialty) %>%
  count(token) %>%
  top_n(5,n)
```

    ## # A tibble: 210 × 3
    ## # Groups:   medical_specialty [40]
    ##    medical_specialty       token         n
    ##    <chr>                   <chr>     <int>
    ##  1 " Allergy / Immunology" allergies    21
    ##  2 " Allergy / Immunology" history      38
    ##  3 " Allergy / Immunology" nasal        13
    ##  4 " Allergy / Immunology" noted        23
    ##  5 " Allergy / Immunology" past         13
    ##  6 " Allergy / Immunology" patient      22
    ##  7 " Autopsy"              anterior     47
    ##  8 " Autopsy"              body         40
    ##  9 " Autopsy"              inch         59
    ## 10 " Autopsy"              left         83
    ## # … with 200 more rows
…
